

[38;5;184m [0m[38;5;184m [0m[38;5;184m_[0m[38;5;184m [0m[38;5;184m [0m[38;5;184m [0m[38;5;184m_[0m[38;5;184m [0m[38;5;184m [0m[38;5;184m [0m[38;5;184m [0m[38;5;178m [0m[38;5;214m [0m[38;5;214m [0m[38;5;214m [0m[38;5;214m [0m[38;5;214m [0m[38;5;214m [0m[38;5;214m [0m[38;5;214m [0m[38;5;214m [0m[38;5;208m [0m[38;5;208m [0m[38;5;208m [0m[38;5;208m [0m[38;5;208m [0m[38;5;208m [0m[38;5;208m [0m[38;5;208m [0m[38;5;208m [0m[38;5;209m [0m[38;5;203m [0m[38;5;203m [0m[38;5;203m [0m[38;5;203m [0m[38;5;203m [0m[38;5;203m [0m[38;5;203m_[0m[38;5;203m [0m[38;5;203m [0m[38;5;203m [0m[38;5;203m [0m[38;5;204m [0m[38;5;198m [0m[38;5;198m [0m[38;5;198m [0m[38;5;198m [0m[38;5;198m [0m[38;5;198m [0m[38;5;198m_[0m[38;5;198m [0m[38;5;198m [0m[38;5;199m [0m[38;5;199m [0m[38;5;199m [0m[38;5;199m [0m[38;5;199m [0m[38;5;199m [0m[38;5;199m_[0m[38;5;199m_[0m[38;5;199m_[0m[38;5;163m [0m[38;5;163m [0m[38;5;164m [0m[38;5;164m [0m[38;5;164m_[0m[38;5;164m_[0m[38;5;164m_[0m[38;5;164m_[0m[38;5;164m [0m[38;5;164m [0m
[38;5;184m [0m[38;5;184m|[0m[38;5;184m [0m[38;5;184m|[0m[38;5;184m [0m[38;5;184m|[0m[38;5;184m [0m[38;5;184m|[0m[38;5;178m [0m[38;5;214m [0m[38;5;214m [0m[38;5;214m_[0m[38;5;214m_[0m[38;5;214m_[0m[38;5;214m [0m[38;5;214m [0m[38;5;214m [0m[38;5;214m [0m[38;5;208m_[0m[38;5;208m [0m[38;5;208m_[0m[38;5;208m_[0m[38;5;208m [0m[38;5;208m_[0m[38;5;208m_[0m[38;5;208m_[0m[38;5;208m [0m[38;5;209m [0m[38;5;203m [0m[38;5;203m [0m[38;5;203m [0m[38;5;203m_[0m[38;5;203m_[0m[38;5;203m_[0m[38;5;203m [0m[38;5;203m [0m[38;5;203m|[0m[38;5;203m [0m[38;5;203m|[0m[38;5;204m [0m[38;5;198m [0m[38;5;198m [0m[38;5;198m_[0m[38;5;198m_[0m[38;5;198m [0m[38;5;198m_[0m[38;5;198m [0m[38;5;198m [0m[38;5;198m|[0m[38;5;199m [0m[38;5;199m|[0m[38;5;199m_[0m[38;5;199m_[0m[38;5;199m [0m[38;5;199m [0m[38;5;199m [0m[38;5;199m [0m[38;5;199m/[0m[38;5;163m [0m[38;5;163m_[0m[38;5;164m [0m[38;5;164m\[0m[38;5;164m [0m[38;5;164m [0m[38;5;164m/[0m[38;5;164m [0m[38;5;164m_[0m[38;5;164m_[0m[38;5;164m_[0m[38;5;164m|[0m[38;5;128m [0m
[38;5;184m [0m[38;5;184m|[0m[38;5;184m [0m[38;5;184m|[0m[38;5;184m_[0m[38;5;178m|[0m[38;5;214m [0m[38;5;214m|[0m[38;5;214m [0m[38;5;214m [0m[38;5;214m/[0m[38;5;214m [0m[38;5;214m_[0m[38;5;214m [0m[38;5;214m\[0m[38;5;208m [0m[38;5;208m [0m[38;5;208m|[0m[38;5;208m [0m[38;5;208m'[0m[38;5;208m_[0m[38;5;208m [0m[38;5;208m`[0m[38;5;208m [0m[38;5;209m_[0m[38;5;203m [0m[38;5;203m\[0m[38;5;203m [0m[38;5;203m [0m[38;5;203m [0m[38;5;203m/[0m[38;5;203m [0m[38;5;203m_[0m[38;5;203m [0m[38;5;203m\[0m[38;5;203m [0m[38;5;204m|[0m[38;5;198m [0m[38;5;198m|[0m[38;5;198m [0m[38;5;198m [0m[38;5;198m/[0m[38;5;198m [0m[38;5;198m_[0m[38;5;198m`[0m[38;5;198m [0m[38;5;199m|[0m[38;5;199m [0m[38;5;199m|[0m[38;5;199m [0m[38;5;199m'[0m[38;5;199m_[0m[38;5;199m [0m[38;5;199m\[0m[38;5;199m [0m[38;5;163m [0m[38;5;163m|[0m[38;5;164m [0m[38;5;164m|[0m[38;5;164m [0m[38;5;164m|[0m[38;5;164m [0m[38;5;164m|[0m[38;5;164m [0m[38;5;164m\[0m[38;5;164m_[0m[38;5;164m_[0m[38;5;128m_[0m[38;5;128m [0m[38;5;129m\[0m[38;5;129m [0m
[38;5;184m [0m[38;5;184m|[0m[38;5;178m [0m[38;5;214m [0m[38;5;214m_[0m[38;5;214m [0m[38;5;214m [0m[38;5;214m|[0m[38;5;214m [0m[38;5;214m|[0m[38;5;214m [0m[38;5;214m([0m[38;5;208m_[0m[38;5;208m)[0m[38;5;208m [0m[38;5;208m|[0m[38;5;208m [0m[38;5;208m|[0m[38;5;208m [0m[38;5;208m|[0m[38;5;208m [0m[38;5;209m|[0m[38;5;203m [0m[38;5;203m|[0m[38;5;203m [0m[38;5;203m|[0m[38;5;203m [0m[38;5;203m|[0m[38;5;203m [0m[38;5;203m|[0m[38;5;203m [0m[38;5;203m [0m[38;5;203m_[0m[38;5;204m_[0m[38;5;198m/[0m[38;5;198m [0m[38;5;198m|[0m[38;5;198m [0m[38;5;198m|[0m[38;5;198m [0m[38;5;198m|[0m[38;5;198m [0m[38;5;198m([0m[38;5;199m_[0m[38;5;199m|[0m[38;5;199m [0m[38;5;199m|[0m[38;5;199m [0m[38;5;199m|[0m[38;5;199m [0m[38;5;199m|[0m[38;5;199m_[0m[38;5;163m)[0m[38;5;163m [0m[38;5;164m|[0m[38;5;164m [0m[38;5;164m|[0m[38;5;164m [0m[38;5;164m|[0m[38;5;164m_[0m[38;5;164m|[0m[38;5;164m [0m[38;5;164m|[0m[38;5;164m [0m[38;5;128m [0m[38;5;128m_[0m[38;5;129m_[0m[38;5;129m_[0m[38;5;129m)[0m[38;5;129m [0m[38;5;129m|[0m
[38;5;214m [0m[38;5;214m|[0m[38;5;214m_[0m[38;5;214m|[0m[38;5;214m [0m[38;5;214m|[0m[38;5;214m_[0m[38;5;214m|[0m[38;5;214m [0m[38;5;208m [0m[38;5;208m\[0m[38;5;208m_[0m[38;5;208m_[0m[38;5;208m_[0m[38;5;208m/[0m[38;5;208m [0m[38;5;208m [0m[38;5;208m|[0m[38;5;209m_[0m[38;5;203m|[0m[38;5;203m [0m[38;5;203m|[0m[38;5;203m_[0m[38;5;203m|[0m[38;5;203m [0m[38;5;203m|[0m[38;5;203m_[0m[38;5;203m|[0m[38;5;203m [0m[38;5;203m [0m[38;5;204m\[0m[38;5;198m_[0m[38;5;198m_[0m[38;5;198m_[0m[38;5;198m|[0m[38;5;198m [0m[38;5;198m|[0m[38;5;198m_[0m[38;5;198m|[0m[38;5;198m [0m[38;5;199m [0m[38;5;199m\[0m[38;5;199m_[0m[38;5;199m_[0m[38;5;199m,[0m[38;5;199m_[0m[38;5;199m|[0m[38;5;199m [0m[38;5;199m|[0m[38;5;163m_[0m[38;5;163m.[0m[38;5;164m_[0m[38;5;164m_[0m[38;5;164m/[0m[38;5;164m [0m[38;5;164m [0m[38;5;164m [0m[38;5;164m\[0m[38;5;164m_[0m[38;5;164m_[0m[38;5;164m_[0m[38;5;128m/[0m[38;5;128m [0m[38;5;129m [0m[38;5;129m|[0m[38;5;129m_[0m[38;5;129m_[0m[38;5;129m_[0m[38;5;129m_[0m[38;5;129m/[0m[38;5;129m [0m


[38;5;208m                        created by Nick Busey [0m


